Bumblebees
…
Code

seminat <- seminat |>
  rowwise() |>
  mutate(
    dist_mean = mean(indicator),
    shift = point_estimate - dist_mean,
    indicator_shifted = list(indicator + shift),
    shifted_mean = mean(indicator_shifted)
  )
seminat |>
  select(region, year, point_estimate, dist_mean, shift, shifted_mean)

# A tibble: 33 × 6
# Rowwise: 
   region  year point_estimate dist_mean   shift shifted_mean
   <chr>  <dbl>          <dbl>     <dbl>   <dbl>        <dbl>
 1 E       2024          0.552     0.483 0.0692         0.552
 2 E       2024          0.603     0.571 0.0329         0.603
 3 E       2024          0.638     0.579 0.0592         0.638
 4 E       2024          0.603     0.529 0.0748         0.603
 5 E       2024          0.621     0.599 0.0212         0.621
 6 W       2024          0.528     0.494 0.0344         0.528
 7 W       2024          0.566     0.536 0.0300         0.566
 8 W       2024          0.623     0.616 0.00632        0.623
 9 S       2024          0.593     0.535 0.0574         0.593
10 S       2024          0.519     0.498 0.0202         0.519
# ℹ 23 more rows
…
